<svg class="ldi-8fyzde" width="315px"  height="315px"  xmlns="http://www.w3.org/2000/svg" xmlns:xlink="http://www.w3.org/1999/xlink" viewBox="0 0 100 100" preserveAspectRatio="xMidYMid" style="background: none;"><!--?xml version="1.0" encoding="utf-8"?--><!--Generator: Adobe Illustrator 21.0.0, SVG Export Plug-In . SVG Version: 6.00 Build 0)--><svg version="1.1" id="圖層_1" xmlns="http://www.w3.org/2000/svg" xmlns:xlink="http://www.w3.org/1999/xlink" x="0px" y="0px" viewBox="0 0 100 100" style="transform-origin: 50px 50px 0px;" xml:space="preserve"><g style="transform-origin: 50px 50px 0px;"><g style="transform-origin: 50px 50px 0px; transform: scale(0.6);"><g style="transform-origin: 50px 50px 0px;"><g><style type="text/css" class="ld ld-fade" style="transform-origin: 50px 50px 0px; animation-duration: 1s; animation-delay: -1s; animation-direction: normal;">.st0{fill:#F5E6C8;stroke:#333333;stroke-width:3.5;stroke-linecap:round;stroke-miterlimit:10;} .st1{fill:#E0E0E0;stroke:#333333;stroke-width:3.5;stroke-linecap:round;stroke-miterlimit:10;} .st2{opacity:0.2;stroke:#000000;stroke-width:3.5;stroke-linecap:round;stroke-miterlimit:10;} .st3{fill:#E0E0E0;stroke:#333333;stroke-width:3.5;stroke-miterlimit:10;} .st4{fill:none;stroke:#333333;stroke-width:3.5;stroke-linecap:round;stroke-miterlimit:10;} .st5{fill:#E0E0E0;stroke:#333333;stroke-width:3.5;stroke-linecap:round;stroke-linejoin:round;stroke-miterlimit:10;} .st6{fill:#666666;} .st7{fill:none;stroke:#333333;stroke-width:2.3;stroke-linecap:round;stroke-linejoin:round;stroke-miterlimit:10;} .st8{fill:#849B87;stroke:#333333;stroke-width:2.3;stroke-linecap:round;stroke-linejoin:round;stroke-miterlimit:10;} .st9{fill:#E0E0E0;stroke:#333333;stroke-width:2.3;stroke-linecap:round;stroke-miterlimit:10;} .st10{fill:#A0C8D7;stroke:#333333;stroke-width:2.3;stroke-linecap:round;stroke-miterlimit:10;} .st11{fill:none;stroke:#333333;stroke-width:2.3;stroke-linecap:round;stroke-miterlimit:10;} .st12{fill:#E0E0E0;stroke:#333333;stroke-width:2.3;stroke-miterlimit:10;} .st13{fill:#A0C8D7;stroke:#333333;stroke-width:2.3;stroke-miterlimit:10;} .st14{fill:#C33737;stroke:#333333;stroke-width:2.3;stroke-miterlimit:10;} .st15{fill:#E15B64;stroke:#333333;stroke-width:2.3;stroke-miterlimit:10;} .st16{fill:#C33737;} .st17{fill:#ABBD81;stroke:#333333;stroke-width:2;stroke-linecap:round;stroke-linejoin:round;stroke-miterlimit:10;} .st18{fill:#E0E0E0;stroke:#333333;stroke-width:2;stroke-linecap:round;stroke-linejoin:round;stroke-miterlimit:10;} .st19{fill:#E15B64;stroke:#333333;stroke-width:2;stroke-linecap:round;stroke-linejoin:round;stroke-miterlimit:10;} .st20{fill:#F8B26A;stroke:#333333;stroke-width:2;stroke-linecap:round;stroke-linejoin:round;stroke-miterlimit:10;} .st21{fill:#333333;stroke:#333333;stroke-width:2;stroke-linecap:round;stroke-linejoin:round;stroke-miterlimit:10;} .st22{fill:#FFFFFF;stroke:#333333;stroke-width:2;stroke-linecap:round;stroke-linejoin:round;stroke-miterlimit:10;} .st23{fill:none;stroke:#333333;stroke-width:2;stroke-linecap:round;stroke-linejoin:round;stroke-miterlimit:10;} .st24{fill:#F5E6C8;stroke:#333333;stroke-width:2;stroke-linecap:round;stroke-linejoin:round;stroke-miterlimit:10;} .st25{fill:#333333;} .st26{fill:#FFFFFF;} .st27{fill:#E0E0E0;} .st28{fill:#F5E169;stroke:#333333;stroke-width:2;stroke-linecap:round;stroke-linejoin:round;stroke-miterlimit:10;} .st29{fill:#E15B64;stroke:#333333;stroke-width:2;stroke-miterlimit:10;} .st30{fill:#F47E60;stroke:#333333;stroke-width:2;stroke-miterlimit:10;} .st31{fill:#F5E6C8;stroke:#333333;stroke-width:2;stroke-miterlimit:10;} .st32{fill:#FFFFFF;stroke:#333333;stroke-width:2;stroke-miterlimit:10;} .st33{fill:#983733;stroke:#333333;stroke-width:2;stroke-miterlimit:10;} .st34{fill:#CCCCCC;} .st35{fill:none;stroke:#333333;stroke-width:3.6064;stroke-linecap:round;stroke-linejoin:round;stroke-miterlimit:10;} .st36{fill:#66503A;} .st37{fill:#E6E6E6;stroke:#333333;stroke-width:2.5819;stroke-miterlimit:10;} .st38{fill:none;stroke:#333333;stroke-width:2.5819;stroke-miterlimit:10;} .st39{fill:#E6E6E6;stroke:#333333;stroke-width:2.5189;stroke-miterlimit:10;} .st40{fill:#E6E6E6;} .st41{fill:#E15B64;} .st42{fill:#F47E60;} .st43{fill:#F5E6C8;} .st44{fill:#983733;} .st45{opacity:0.3;fill:#1A1A1A;} .st46{fill:#ABBD81;} .st47{fill:#849B87;} .st48{fill:#A0C8D7;} .st49{fill:#77A4BD;} .st50{opacity:0.2;fill:#1A1A1A;} .st51{fill:#A0C8D7;stroke:#333333;stroke-width:2;stroke-linecap:round;stroke-linejoin:round;stroke-miterlimit:10;} .st52{fill:#B3B3B3;} .st53{fill:#E0E0E0;stroke:#333333;stroke-width:1.1248;stroke-miterlimit:10;} .st54{fill:#FFFFFF;stroke:#333333;stroke-width:1.1248;stroke-miterlimit:10;} .st55{fill:#77A4BD;stroke:#333333;stroke-width:1.1248;stroke-miterlimit:10;} .st56{fill:none;stroke:#333333;stroke-width:1.1248;stroke-linecap:round;stroke-miterlimit:10;} .st57{fill:#F8B26A;} .st58{fill:none;stroke:#F47E60;stroke-width:2.5397;stroke-linecap:round;stroke-miterlimit:10;} .st59{opacity:0.3;fill:none;stroke:#000000;stroke-width:1.9578;stroke-miterlimit:10;} .st60{opacity:0.3;fill:none;stroke:#000000;stroke-width:0.9818;stroke-miterlimit:10;} .st61{opacity:0.3;fill:none;stroke:#000000;stroke-width:0.9528;stroke-miterlimit:10;} .st62{fill:#E15B64;stroke:#333333;stroke-width:2.3462;stroke-linecap:round;stroke-linejoin:round;stroke-miterlimit:10;} .st63{fill:none;stroke:#333333;stroke-width:2.3462;stroke-linecap:round;stroke-linejoin:round;stroke-miterlimit:10;} .st64{fill:#A0C8D7;stroke:#333333;stroke-width:2.3;stroke-linecap:round;stroke-linejoin:round;stroke-miterlimit:10;} .st65{fill:#A0C8D7;stroke:#333333;stroke-width:2.0572;stroke-linecap:round;stroke-linejoin:round;stroke-miterlimit:10;} .st66{fill:#77A4BD;stroke:#333333;stroke-width:2.1771;stroke-linecap:round;stroke-linejoin:round;stroke-miterlimit:10;} .st67{fill:#FEFEFE;} .st68{opacity:0.2;stroke:#000000;stroke-width:2.3;stroke-miterlimit:10;} .st69{opacity:0.2;stroke:#000000;stroke-width:2.346;stroke-linecap:round;stroke-linejoin:round;stroke-miterlimit:10;} .st70{opacity:0.2;stroke:#000000;stroke-width:2.3;stroke-linecap:round;stroke-linejoin:round;stroke-miterlimit:10;} .st71{opacity:0.2;stroke:#333333;stroke-width:2.3;stroke-linecap:round;stroke-linejoin:round;stroke-miterlimit:10;} .st72{opacity:0.2;} .st73{fill:none;stroke:#FFFFFF;stroke-width:2.3;stroke-linecap:round;stroke-miterlimit:10;} .st74{fill:#77A4BD;stroke:#333333;stroke-width:2.3;stroke-linecap:round;stroke-miterlimit:10;} .st75{fill:#77A4BD;stroke:#333333;stroke-width:2.3;stroke-miterlimit:10;} .st76{opacity:0.2;stroke:#000000;stroke-width:2.3;stroke-linecap:round;stroke-miterlimit:10;} .st77{fill:#CCCCCC;stroke:#333333;stroke-width:2.3;stroke-linecap:round;stroke-linejoin:round;stroke-miterlimit:10;} .st78{fill:#E0E0E0;stroke:#333333;stroke-width:2.3;stroke-linecap:round;stroke-linejoin:round;stroke-miterlimit:10;} .st79{fill:#77A4BD;stroke:#333333;stroke-width:2.3;stroke-linecap:round;stroke-linejoin:round;stroke-miterlimit:10;} .st80{fill:#F8B26A;stroke:#333333;stroke-width:2.3;stroke-linecap:round;stroke-linejoin:round;stroke-miterlimit:10;} .st81{fill:#F8B26A;stroke:#FFFFFF;stroke-width:2.3;stroke-linecap:round;stroke-linejoin:round;stroke-miterlimit:10;} .st82{fill:#F47E60;stroke:#333333;stroke-width:2.3;stroke-linecap:round;stroke-linejoin:round;stroke-miterlimit:10;} .st83{fill:#F47E60;stroke:#FFFFFF;stroke-width:2.3;stroke-linecap:round;stroke-linejoin:round;stroke-miterlimit:10;} .st84{fill:#C33737;stroke:#333333;stroke-width:2.3;stroke-linecap:round;stroke-linejoin:round;stroke-miterlimit:10;} .st85{fill:#E15B64;stroke:#333333;stroke-width:3.5;stroke-linecap:round;stroke-linejoin:round;stroke-miterlimit:10;} .st86{fill:#ABBD81;stroke:#333333;stroke-width:3.5;stroke-linecap:round;stroke-linejoin:round;stroke-miterlimit:10;} .st87{fill:#F8B26A;stroke:#333333;stroke-width:3.5;stroke-linecap:round;stroke-linejoin:round;stroke-miterlimit:10;} .st88{fill:#333333;stroke:#333333;stroke-width:3.5;stroke-linecap:round;stroke-linejoin:round;stroke-miterlimit:10;} .st89{fill:none;stroke:#333333;stroke-width:3.5;stroke-linecap:round;stroke-linejoin:round;stroke-miterlimit:10;} .st90{fill:#E0E0E0;stroke:#333333;stroke-width:3.6011;stroke-linecap:round;stroke-linejoin:round;stroke-miterlimit:10;} .st91{fill:#FFFFFF;stroke:#333333;stroke-width:3.6011;stroke-linecap:round;stroke-linejoin:round;stroke-miterlimit:10;} .st92{fill:#F5E6C8;stroke:#333333;stroke-width:3.6011;stroke-linecap:round;stroke-linejoin:round;stroke-miterlimit:10;} .st93{fill:none;stroke:#333333;stroke-width:3.6011;stroke-linecap:round;stroke-linejoin:round;stroke-miterlimit:10;} .st94{fill:#F5E169;stroke:#333333;stroke-width:3.5;stroke-linecap:round;stroke-linejoin:round;stroke-miterlimit:10;} .st95{fill:#E15B64;stroke:#333333;stroke-width:3.5;stroke-miterlimit:10;} .st96{fill:#F47E60;stroke:#333333;stroke-width:3.5;stroke-miterlimit:10;} .st97{fill:#F5E6C8;stroke:#333333;stroke-width:3.5;stroke-miterlimit:10;} .st98{fill:#983733;stroke:#333333;stroke-width:3.5;stroke-miterlimit:10;} .st99{opacity:0.2;stroke:#000000;stroke-width:3.5;stroke-miterlimit:10;} .st100{opacity:0.2;stroke:#000000;stroke-width:3.5;stroke-linecap:round;stroke-linejoin:round;stroke-miterlimit:10;} .st101{fill:#C33737;stroke:#333333;stroke-width:3.5;stroke-miterlimit:10;} .st102{fill:#E15B64;stroke:#FFFFFF;stroke-width:3.5;stroke-linecap:round;stroke-linejoin:round;stroke-miterlimit:10;} .st103{fill:#F47E60;stroke:#333333;stroke-width:3.9691;stroke-linecap:round;stroke-linejoin:round;stroke-miterlimit:10;} .st104{fill:#E15B64;stroke:#FFFFFF;stroke-width:3.9691;stroke-linecap:round;stroke-linejoin:round;stroke-miterlimit:10;} .st105{fill:none;stroke:#333333;stroke-width:3.9691;stroke-linecap:round;stroke-linejoin:round;stroke-miterlimit:10;} .st106{opacity:0.2;stroke:#000000;stroke-width:2.6604;stroke-linecap:round;stroke-linejoin:round;stroke-miterlimit:10;} .st107{fill:#CCCCCC;stroke:#333333;stroke-width:3.5;stroke-miterlimit:10;} .st108{opacity:0.3;fill:none;stroke:#000000;stroke-width:3.5;stroke-miterlimit:10;} .st109{fill:#A0C8D7;stroke:#333333;stroke-width:3.5;stroke-linecap:round;stroke-linejoin:round;stroke-miterlimit:10;} .st110{fill:#77A4BD;stroke:#333333;stroke-width:3.5;stroke-linecap:round;stroke-linejoin:round;stroke-miterlimit:10;} .st111{opacity:0.2;stroke:#000000;stroke-width:3.5;stroke-linejoin:round;stroke-miterlimit:10;} .st112{fill:#A0C8D7;stroke:#333333;stroke-width:3.5;stroke-linecap:round;stroke-miterlimit:10;} .st113{fill:#77A4BD;stroke:#333333;stroke-width:3.5;stroke-linecap:round;stroke-miterlimit:10;} .st114{fill:#F8B26A;stroke:#333333;stroke-width:3.5;stroke-miterlimit:10;} .st115{fill:#A0C8D7;stroke:#333333;stroke-width:3.5;stroke-miterlimit:10;} .st116{fill:#77A4BD;stroke:#333333;stroke-width:3.5;stroke-miterlimit:10;} .st117{fill:#F8B26A;stroke:#FFFFFF;stroke-width:3.5;stroke-linecap:round;stroke-miterlimit:10;} .st118{fill:#FFFFFF;stroke:#333333;stroke-width:3.5;stroke-linecap:round;stroke-miterlimit:10;} .st119{fill:#F8B26A;stroke:#333333;stroke-width:3.5;stroke-linecap:round;stroke-miterlimit:10;}</style><g class="ld ld-fade" style="transform-origin: 50px 50px 0px; animation-duration: 1s; animation-delay: -0.928571s; animation-direction: normal;"><rect x="35.333" y="13.51" transform="matrix(-0.866 -0.5 0.5 -0.866 81.949 105.0973)" class="st51" width="39.444" height="56.119" fill="#2AC37D" stroke="#ffffff" style="fill: rgb(42, 195, 125); stroke: rgb(255, 255, 255);"></rect></g><g class="ld ld-fade" style="transform-origin: 50px 50px 0px; animation-duration: 1s; animation-delay: -0.857143s; animation-direction: normal;"><path class="st18" d="M24.643,78.069l14.008,8.088c4.462,2.576,10.167,1.047,12.744-3.415l4.714-8.164L25.942,57.161l-4.714,8.164 C18.652,69.788,20.181,75.493,24.643,78.069z" stroke="#ffffff" fill="#8cf1c3" style="stroke: rgb(255, 255, 255); fill: rgb(140, 241, 195);"></path></g><g class="ld ld-fade" style="transform-origin: 50px 50px 0px; animation-duration: 1s; animation-delay: -0.785714s; animation-direction: normal;"><rect x="41.33" y="45.869" transform="matrix(0.5 -0.866 0.866 0.5 -8.4728 83.742)" class="st49" width="53.912" height="6.68" fill="#2ac37d" style="fill: rgb(42, 195, 125);"></rect></g><g class="ld ld-fade" style="transform-origin: 50px 50px 0px; animation-duration: 1s; animation-delay: -0.714286s; animation-direction: normal;"><path class="st52" d="M37.057,83.963l2.145,1.239c3.928,2.268,8.969,0.918,11.237-3.01l4.162-7.209l-5.786-3.341l-4.162,7.209 C42.984,81.741,40.132,83.531,37.057,83.963z" fill="#2AC37D" style="fill: rgb(42, 195, 125);"></path></g><metadata xmlns:d="https://loading.io/stock/" class="ld ld-fade" style="transform-origin: 50px 50px 0px; animation-duration: 1s; animation-delay: -0.642857s; animation-direction: normal;">
<d:name class="ld ld-fade" style="transform-origin: 50px 50px 0px; animation-duration: 1s; animation-delay: -0.571429s; animation-direction: normal;">eraser</d:name>
<d:tags class="ld ld-fade" style="transform-origin: 50px 50px 0px; animation-duration: 1s; animation-delay: -0.5s; animation-direction: normal;">eraser,rubber,undo,delete,remove,clear,clean,abolish,wipe,trim,stationery</d:tags>
<d:license class="ld ld-fade" style="transform-origin: 50px 50px 0px; animation-duration: 1s; animation-delay: -0.428571s; animation-direction: normal;">cc-by</d:license>
<d:slug class="ld ld-fade" style="transform-origin: 50px 50px 0px; animation-duration: 1s; animation-delay: -0.357143s; animation-direction: normal;">8fyzde</d:slug>
</metadata></g></g></g></g><style type="text/css" class="ld ld-fade" style="transform-origin: 50px 50px 0px; animation-duration: 1s; animation-delay: -0.285714s; animation-direction: normal;">@keyframes ld-fade {
  0% {
    opacity: 1;
  }
  100% {
    opacity: 0;
  }
}
@-webkit-keyframes ld-fade {
  0% {
    opacity: 1;
  }
  100% {
    opacity: 0;
  }
}
.ld.ld-fade {
  -webkit-animation: ld-fade 1s infinite linear;
  animation: ld-fade 1s infinite linear;
}
</style></svg></svg>